{
    "_id": "56463c24b66f8358acce4451",
    "tags": [
        "arcane enhancements"
    ],
    "icon": "icons/en/Arcane_Fury.221e1166ea44c6d2473f59b7cfa4396a.png",
    "thumb": "icons/en/thumbs/Arcane_Fury.221e1166ea44c6d2473f59b7cfa4396a.128x128.png",
    "icon_format": "land",
    "url_name": "arcane_fury",
    "tradable": true,
    "en": {
        "item_name": "Arcane Fury",
        "description": "<p>Arcane Fury is an Arcane Enhancement that provides a chance upon delivering a critical Hit to increase Melee Damage for  a short time. </p>",
        "wiki_link": "http://warframe.wikia.com/wiki/Arcane_Fury",
        "drop": []
    },
    "ru": {
        "item_name": "Мистическая Ярость",
        "description": "<p>Описание отсутствует</p>",
        "wiki_link": "http://ru.warframe.wikia.com/wiki/%D0%9C%D0%B8%D1%81%D1%82%D0%B8%D1%87%D0%B5%D1%81%D0%BA%D0%B0%D1%8F_%D1%8F%D1%80%D0%BE%D1%81%D1%82%D1%8C",
        "drop": []
    },
    "ko": {
        "item_name": "아케인 퓨리",
        "description": "<p>Arcane Fury is an Arcane Enhancement that provides a chance upon delivering a critical Hit to increase Melee Damage for  a short time. </p>",
        "wiki_link": "http://warframe.wikia.com/wiki/Arcane_Fury",
        "drop": []
    },
    "rarity": "rare",
    "mod_max_rank": 3,
    "trading_tax": 8000
}