{
    "_id": "5dff6e1014569703166749fa",
    "tags": [
        "avionic"
    ],
    "icon": "icons/en/heat_sink_(zetki).ff5f23593d0850514dd7b63c3a16d8c9.png",
    "thumb": "icons/en/thumbs/heat_sink_(zetki).ff5f23593d0850514dd7b63c3a16d8c9.128x128.png",
    "icon_format": "port",
    "url_name": "heat_sink_(zetki)",
    "tradable": true,
    "en": {
        "item_name": "Heat Sink (Zetki)",
        "description": "A Integrated Avionics that reduces Incendiary damage (only applies to enemy projectiles, not fire hazards)",
        "wiki_link": "https://warframe.fandom.com/wiki/Avionics#Heat_Sink",
        "drop": [
            {
                "name": "Cannon Battery",
                "link": null
            },
            {
                "name": "Kosma Taktis",
                "link": null
            },
            {
                "name": "Kosma Cutter",
                "link": null
            },
            {
                "name": "Elite Gyre Flak",
                "link": null
            },
            {
                "name": "Elite Gyre Taktis",
                "link": null
            }
        ]
    },
    "ru": {
        "item_name": "Heat Sink (Zetki)",
        "description": "A Integrated Avionics that reduces Incendiary damage (only applies to enemy projectiles, not fire hazards)",
        "wiki_link": "https://warframe.fandom.com/wiki/Avionics#Heat_Sink",
        "drop": [
            {
                "name": "Cannon Battery",
                "link": null
            },
            {
                "name": "Kosma Taktis",
                "link": null
            },
            {
                "name": "Kosma Cutter",
                "link": null
            },
            {
                "name": "Elite Gyre Flak",
                "link": null
            },
            {
                "name": "Elite Gyre Taktis",
                "link": null
            }
        ]
    },
    "ko": {
        "item_name": "Heat Sink (Zetki)",
        "description": "A Integrated Avionics that reduces Incendiary damage (only applies to enemy projectiles, not fire hazards)",
        "wiki_link": "https://warframe.fandom.com/wiki/Avionics#Heat_Sink",
        "drop": [
            {
                "name": "Cannon Battery",
                "link": null
            },
            {
                "name": "Kosma Taktis",
                "link": null
            },
            {
                "name": "Kosma Cutter",
                "link": null
            },
            {
                "name": "Elite Gyre Flak",
                "link": null
            },
            {
                "name": "Elite Gyre Taktis",
                "link": null
            }
        ]
    },
    "mod_max_rank": 1
}