{
    "_id": "5a04750e6c4655012038ddce",
    "tags": [
        "arcane enhancements",
        "operator"
    ],
    "icon": "icons/en/Magus_Elevate.c2f5a10648687f0c0fc4f66f5df6b76f.png",
    "thumb": "icons/en/thumbs/Magus_Elevate.c2f5a10648687f0c0fc4f66f5df6b76f.128x128.png",
    "icon_format": "land",
    "url_name": "magus_elevate",
    "tradable": true,
    "en": {
        "item_name": "Magus Elevate",
        "description": "<p>Magus Elevate is an Arcane Enhancement for the Operator that grants a chance to restore health to a Warframe after transferring into it.</p>",
        "wiki_link": "http://warframe.wikia.com/wiki/Magus_Elevate",
        "drop": []
    },
    "ru": {
        "item_name": "Возвышение Волхва",
        "description": "<p>Возвышение Волхва - мистификатор для Оператора, который с некоторым шансом восстанавливает определенное количество здоровья Варфрейма при деактивации режима Оператора.</p>",
        "wiki_link": "http://ru.warframe.wikia.com/wiki/%D0%92%D0%BE%D0%B7%D0%B2%D1%8B%D1%88%D0%B5%D0%BD%D0%B8%D0%B5_%D0%92%D0%BE%D0%BB%D1%85%D0%B2%D0%B0",
        "drop": []
    },
    "ko": {
        "item_name": "마구스 엘레베이트",
        "description": "<p>Magus Elevate is an Arcane Enhancement for the Operator that grants a chance to restore health to a Warframe after transferring into it.</p>",
        "wiki_link": "http://warframe.wikia.com/wiki/Magus_Elevate",
        "drop": []
    },
    "mod_max_rank": 3,
    "trading_tax": 0
}