{
    "_id": "5a04750e6c4655012038ddcf",
    "tags": [
        "arcane enhancements",
        "operator"
    ],
    "icon": "icons/en/Magus_Cloud.911f21546c5c95ceb5e23bb5127fd9e4.png",
    "thumb": "icons/en/thumbs/Magus_Cloud.911f21546c5c95ceb5e23bb5127fd9e4.128x128.png",
    "icon_format": "land",
    "url_name": "magus_cloud",
    "tradable": true,
    "en": {
        "item_name": "Magus Cloud",
        "description": "<p>Magus Cloud is an Arcane Enhancement for the operator that grants a chance to become immune to fall damage after a void dash.</p>",
        "wiki_link": "http://warframe.wikia.com/wiki/Magus_Cloud",
        "drop": []
    },
    "ru": {
        "item_name": "Облако Волхва",
        "description": "<p>Облако Волхва - мистификатор для Оператора, с помощью которого у Оператора появляется шанс избежать урона от падения.</p>",
        "wiki_link": "http://ru.warframe.wikia.com/wiki/%D0%9E%D0%B1%D0%BB%D0%B0%D0%BA%D0%BE_%D0%92%D0%BE%D0%BB%D1%85%D0%B2%D0%B0",
        "drop": []
    },
    "ko": {
        "item_name": "마구스 클라우드",
        "description": "<p>Magus Cloud is an Arcane Enhancement for the operator that grants a chance to become immune to fall damage after a void dash.</p>",
        "wiki_link": "http://warframe.wikia.com/wiki/Magus_Cloud",
        "drop": []
    },
    "mod_max_rank": 3,
    "trading_tax": 0
}