{
    "_id": "57bcb14ce506eb45ea25145e",
    "tags": [
        "blueprint",
        "warframe",
        "prime"
    ],
    "icon": "icons/en/nekros_prime_blueprint.523943a15c82985ebe7cf14eac98966d.png",
    "thumb": "icons/en/thumbs/nekros_prime_blueprint.523943a15c82985ebe7cf14eac98966d.128x128.png",
    "icon_format": "port",
    "sub_icon": "sub_icons/blueprint_128x128.png",
    "url_name": "nekros_prime_blueprint",
    "tradable": true,
    "part_of_set": [
        "57bc9a40e506eb45ea251451",
        "57bcb14ce506eb45ea25145e",
        "57bc9a40e506eb45ea251452",
        "57bc9a40e506eb45ea251453",
        "57bc9a40e506eb45ea251454"
    ],
    "set_root": false,
    "en": {
        "item_name": "Nekros Prime Blueprint",
        "description": "<p>Release Date: August 23rd, 2016</p><p>Nekros Prime is the Prime variant of the Nekros Warframe featuring higher shields and power values, as well as an additional  polarity.</p>",
        "wiki_link": "http://warframe.wikia.com/wiki/Nekros/Prime",
        "drop": [
            {
                "name": "Axi N3 Rare",
                "link": null
            },
            {
                "name": "Lith N3 Rare",
                "link": null
            },
            {
                "name": "Meso N3 Rare",
                "link": null
            }
        ]
    },
    "ru": {
        "item_name": "Некрос Прайм Чертеж",
        "description": "<p>Некрос Прайм — легкобронированный и мобильный Варфрейм, управляющий тёмными силами, которые позволяют ему управлять как живыми, так и мёртвыми. Его способности позволяют вселять страх во врага, призывать павших противников, которые будут бороться на стороне Лотос mТэнно, или осквернять убитых, предоставляя команде дополнительную добычу.</p>",
        "wiki_link": "http://ru.warframe.wikia.com/wiki/%D0%9D%D0%B5%D0%BA%D1%80%D0%BE%D1%81",
        "drop": [
            {
                "name": "Акси N3 (Редкая)",
                "link": null
            },
            {
                "name": "Лит N3 (Редкая)",
                "link": null
            },
            {
                "name": "Мезо N3 (Редкая)",
                "link": null
            }
        ]
    },
    "ko": {
        "item_name": "네크로스 프라임 설계도",
        "description": "<p>Release Date: August 23rd, 2016</p><p>Nekros Prime is the Prime variant of the Nekros Warframe featuring higher shields and power values, as well as an additional  polarity.</p>",
        "wiki_link": "http://warframe.wikia.com/wiki/Nekros/Prime",
        "drop": [
            {
                "name": "액시 N3 Rare",
                "link": null
            },
            {
                "name": "리스 N3 Rare",
                "link": null
            },
            {
                "name": "메소 N3 Rare",
                "link": null
            }
        ]
    },
    "mastery_level": 0,
    "ducats": 100,
    "trading_tax": 4000
}