{
    "_id": "5dff6e111456970316674a18",
    "tags": [
        "avionic"
    ],
    "icon": "icons/en/ripload_(lavan).ff5f23593d0850514dd7b63c3a16d8c9.png",
    "thumb": "icons/en/thumbs/ripload_(lavan).ff5f23593d0850514dd7b63c3a16d8c9.128x128.png",
    "icon_format": "port",
    "url_name": "ripload_(lavan)",
    "tradable": true,
    "en": {
        "item_name": "Ripload (Lavan)",
        "description": "A Integrated Avionics that decreases Ordnance Reload time.  Drops from Exo Flak (3.794%), Elite Exo Taktis (3.794%), Elite Kosma Cutter (1.106%), Gyre Cutter (3.794%), and Elite Gyre Cutter (3.794%).",
        "wiki_link": "https://warframe.fandom.com/wiki/Avionics#Ripload",
        "drop": [
            {
                "name": "Exo Flak",
                "link": null
            },
            {
                "name": "Elite Exo Taktis",
                "link": null
            },
            {
                "name": "Elite Kosma Cutter",
                "link": null
            },
            {
                "name": "Gyre Cutter",
                "link": null
            },
            {
                "name": "Elite Gyre Cutter",
                "link": null
            }
        ]
    },
    "ru": {
        "item_name": "Ripload (Lavan)",
        "description": "A Integrated Avionics that decreases Ordnance Reload time.  Drops from Exo Flak (3.794%), Elite Exo Taktis (3.794%), Elite Kosma Cutter (1.106%), Gyre Cutter (3.794%), and Elite Gyre Cutter (3.794%).",
        "wiki_link": "https://warframe.fandom.com/wiki/Avionics#Ripload",
        "drop": [
            {
                "name": "Exo Flak",
                "link": null
            },
            {
                "name": "Elite Exo Taktis",
                "link": null
            },
            {
                "name": "Elite Kosma Cutter",
                "link": null
            },
            {
                "name": "Gyre Cutter",
                "link": null
            },
            {
                "name": "Elite Gyre Cutter",
                "link": null
            }
        ]
    },
    "ko": {
        "item_name": "Ripload (Lavan)",
        "description": "A Integrated Avionics that decreases Ordnance Reload time.  Drops from Exo Flak (3.794%), Elite Exo Taktis (3.794%), Elite Kosma Cutter (1.106%), Gyre Cutter (3.794%), and Elite Gyre Cutter (3.794%).",
        "wiki_link": "https://warframe.fandom.com/wiki/Avionics#Ripload",
        "drop": [
            {
                "name": "Exo Flak",
                "link": null
            },
            {
                "name": "Elite Exo Taktis",
                "link": null
            },
            {
                "name": "Elite Kosma Cutter",
                "link": null
            },
            {
                "name": "Gyre Cutter",
                "link": null
            },
            {
                "name": "Elite Gyre Cutter",
                "link": null
            }
        ]
    },
    "mod_max_rank": 4
}